....
----------------------------------------------------------------------
Ran 4 tests in 0.000s

OK
Name               Stmts   Miss Branch BrPart  Cover   Missing
--------------------------------------------------------------
Diplomacy.py          78      1     46      1    98%   67, 64->67
TestDiplomacy.py      27      1      2      1    93%   66, 63->66
--------------------------------------------------------------
TOTAL                105      2     48      2    97%
