..............
----------------------------------------------------------------------
Ran 14 tests in 0.002s

OK
Name               Stmts   Miss Branch BrPart  Cover   Missing
--------------------------------------------------------------
Diplomacy.py          52      1     32      2    96%   55, 43->38, 54->55
TestDiplomacy.py      68      0      0      0   100%
--------------------------------------------------------------
TOTAL                120      1     32      2    98%
